%YAML 1.1
%TAG !u! tag:unity3d.com,2011:
--- !u!114 &11400000
MonoBehaviour:
  m_ObjectHideFlags: 0
  m_CorrespondingSourceObject: {fileID: 0}
  m_PrefabInstance: {fileID: 0}
  m_PrefabAsset: {fileID: 0}
  m_GameObject: {fileID: 0}
  m_Enabled: 1
  m_EditorHideFlags: 0
  m_Script: {fileID: 11500000, guid: e7e7db9a2688ed540af9819c456ba2e2, type: 3}
  m_Name: DeepPur
  m_EditorClassIdentifier: 
  Name: 
  Settings:
  - Name: ScaleOffsetColorTheme
    AssemblyQualifiedName: Microsoft.MixedReality.Toolkit.UI.ScaleOffsetColorTheme,
      Microsoft.MixedReality.Toolkit.SDK, Version=0.0.0.0, Culture=neutral, PublicKeyToken=null
    Properties:
    - Name: Scale
      Type: 6
      Values:
      - Name: Default
        String: 
        Bool: 0
        Int: 0
        Float: 0
        Texture: {fileID: 0}
        Material: {fileID: 0}
        GameObject: {fileID: 0}
        Vector2: {x: 0, y: 0}
        Vector3: {x: 1, y: 1, z: 1}
        Vector4: {x: 0, y: 0, z: 0, w: 0}
        Color: {r: 0, g: 0, b: 0, a: 0}
        Quaternion: {x: 0, y: 0, z: 0, w: 0}
        AudioClip: {fileID: 0}
        Animation: {fileID: 0}
      - Name: Focus
        String: 
        Bool: 0
        Int: 0
        Float: 0
        Texture: {fileID: 0}
        Material: {fileID: 0}
        GameObject: {fileID: 0}
        Vector2: {x: 0, y: 0}
        Vector3: {x: 1, y: 1, z: 1}
        Vector4: {x: 0, y: 0, z: 0, w: 0}
        Color: {r: 0, g: 0, b: 0, a: 0}
        Quaternion: {x: 0, y: 0, z: 0, w: 0}
        AudioClip: {fileID: 0}
        Animation: {fileID: 0}
      - Name: Pressed
        String: 
        Bool: 0
        Int: 0
        Float: 0
        Texture: {fileID: 0}
        Material: {fileID: 0}
        GameObject: {fileID: 0}
        Vector2: {x: 0, y: 0}
        Vector3: {x: 1, y: 1, z: 1}
        Vector4: {x: 0, y: 0, z: 0, w: 0}
        Color: {r: 0, g: 0, b: 0, a: 0}
        Quaternion: {x: 0, y: 0, z: 0, w: 0}
        AudioClip: {fileID: 0}
        Animation: {fileID: 0}
      - Name: Disabled
        String: 
        Bool: 0
        Int: 0
        Float: 0
        Texture: {fileID: 0}
        Material: {fileID: 0}
        GameObject: {fileID: 0}
        Vector2: {x: 0, y: 0}
        Vector3: {x: 1, y: 1, z: 1}
        Vector4: {x: 0, y: 0, z: 0, w: 0}
        Color: {r: 0, g: 0, b: 0, a: 0}
        Quaternion: {x: 0, y: 0, z: 0, w: 0}
        AudioClip: {fileID: 0}
        Animation: {fileID: 0}
      StartValue:
        Name: 
        String: 
        Bool: 0
        Int: 0
        Float: 0
        Texture: {fileID: 0}
        Material: {fileID: 0}
        GameObject: {fileID: 0}
        Vector2: {x: 0, y: 0}
        Vector3: {x: 0, y: 0, z: 0}
        Vector4: {x: 0, y: 0, z: 0, w: 0}
        Color: {r: 0, g: 0, b: 0, a: 0}
        Quaternion: {x: 0, y: 0, z: 0, w: 0}
        AudioClip: {fileID: 0}
        Animation: {fileID: 0}
      PropId: 0
      ShaderOptions: []
      ShaderOptionNames: []
      Default:
        Name: 
        String: 
        Bool: 0
        Int: 0
        Float: 0
        Texture: {fileID: 0}
        Material: {fileID: 0}
        GameObject: {fileID: 0}
        Vector2: {x: 0, y: 0}
        Vector3: {x: 0, y: 0, z: 0}
        Vector4: {x: 0, y: 0, z: 0, w: 0}
        Color: {r: 0, g: 0, b: 0, a: 0}
        Quaternion: {x: 0, y: 0, z: 0, w: 0}
        AudioClip: {fileID: 0}
        Animation: {fileID: 0}
      ShaderName: Mixed Reality Toolkit/Standard
    - Name: Offset
      Type: 6
      Values:
      - Name: Default
        String: 
        Bool: 0
        Int: 0
        Float: 0
        Texture: {fileID: 0}
        Material: {fileID: 0}
        GameObject: {fileID: 0}
        Vector2: {x: 0, y: 0}
        Vector3: {x: 0, y: 0, z: 0}
        Vector4: {x: 0, y: 0, z: 0, w: 0}
        Color: {r: 0, g: 0, b: 0, a: 0}
        Quaternion: {x: 0, y: 0, z: 0, w: 0}
        AudioClip: {fileID: 0}
        Animation: {fileID: 0}
      - Name: Focus
        String: 
        Bool: 0
        Int: 0
        Float: 0
        Texture: {fileID: 0}
        Material: {fileID: 0}
        GameObject: {fileID: 0}
        Vector2: {x: 0, y: 0}
        Vector3: {x: 0, y: 0, z: 0}
        Vector4: {x: 0, y: 0, z: 0, w: 0}
        Color: {r: 0, g: 0, b: 0, a: 0}
        Quaternion: {x: 0, y: 0, z: 0, w: 0}
        AudioClip: {fileID: 0}
        Animation: {fileID: 0}
      - Name: Pressed
        String: 
        Bool: 0
        Int: 0
        Float: 0
        Texture: {fileID: 0}
        Material: {fileID: 0}
        GameObject: {fileID: 0}
        Vector2: {x: 0, y: 0}
        Vector3: {x: 0, y: 0, z: 0}
        Vector4: {x: 0, y: 0, z: 0, w: 0}
        Color: {r: 0, g: 0, b: 0, a: 0}
        Quaternion: {x: 0, y: 0, z: 0, w: 0}
        AudioClip: {fileID: 0}
        Animation: {fileID: 0}
      - Name: Disabled
        String: 
        Bool: 0
        Int: 0
        Float: 0
        Texture: {fileID: 0}
        Material: {fileID: 0}
        GameObject: {fileID: 0}
        Vector2: {x: 0, y: 0}
        Vector3: {x: 0, y: 0, z: 0}
        Vector4: {x: 0, y: 0, z: 0, w: 0}
        Color: {r: 0, g: 0, b: 0, a: 0}
        Quaternion: {x: 0, y: 0, z: 0, w: 0}
        AudioClip: {fileID: 0}
        Animation: {fileID: 0}
      StartValue:
        Name: 
        String: 
        Bool: 0
        Int: 0
        Float: 0
        Texture: {fileID: 0}
        Material: {fileID: 0}
        GameObject: {fileID: 0}
        Vector2: {x: 0, y: 0}
        Vector3: {x: 0, y: 0, z: 0}
        Vector4: {x: 0, y: 0, z: 0, w: 0}
        Color: {r: 0, g: 0, b: 0, a: 0}
        Quaternion: {x: 0, y: 0, z: 0, w: 0}
        AudioClip: {fileID: 0}
        Animation: {fileID: 0}
      PropId: 0
      ShaderOptions: []
      ShaderOptionNames: []
      Default:
        Name: 
        String: 
        Bool: 0
        Int: 0
        Float: 0
        Texture: {fileID: 0}
        Material: {fileID: 0}
        GameObject: {fileID: 0}
        Vector2: {x: 0, y: 0}
        Vector3: {x: 0, y: 0, z: 0}
        Vector4: {x: 0, y: 0, z: 0, w: 0}
        Color: {r: 0, g: 0, b: 0, a: 0}
        Quaternion: {x: 0, y: 0, z: 0, w: 0}
        AudioClip: {fileID: 0}
        Animation: {fileID: 0}
      ShaderName: Mixed Reality Toolkit/Standard
    - Name: Color
      Type: 2
      Values:
      - Name: Default
        String: 
        Bool: 0
        Int: 0
        Float: 0
        Texture: {fileID: 0}
        Material: {fileID: 0}
        GameObject: {fileID: 0}
        Vector2: {x: 0, y: 0}
        Vector3: {x: 0, y: 0, z: 0}
        Vector4: {x: 0, y: 0, z: 0, w: 0}
        Color: {r: 1, g: 1, b: 1, a: 1}
        Quaternion: {x: 0, y: 0, z: 0, w: 0}
        AudioClip: {fileID: 0}
        Animation: {fileID: 0}
      - Name: Focus
        String: 
        Bool: 0
        Int: 0
        Float: 0
        Texture: {fileID: 0}
        Material: {fileID: 0}
        GameObject: {fileID: 0}
        Vector2: {x: 0, y: 0}
        Vector3: {x: 0, y: 0, z: 0}
        Vector4: {x: 0, y: 0, z: 0, w: 0}
        Color: {r: 0.16862746, g: 0.039215688, b: 0.23921569, a: 1}
        Quaternion: {x: 0, y: 0, z: 0, w: 0}
        AudioClip: {fileID: 0}
        Animation: {fileID: 0}
      - Name: Pressed
        String: 
        Bool: 0
        Int: 0
        Float: 0
        Texture: {fileID: 0}
        Material: {fileID: 0}
        GameObject: {fileID: 0}
        Vector2: {x: 0, y: 0}
        Vector3: {x: 0, y: 0, z: 0}
        Vector4: {x: 0, y: 0, z: 0, w: 0}
        Color: {r: 0.1764706, g: 0.050980397, b: 0.24705884, a: 1}
        Quaternion: {x: 0, y: 0, z: 0, w: 0}
        AudioClip: {fileID: 0}
        Animation: {fileID: 0}
      - Name: Disabled
        String: 
        Bool: 0
        Int: 0
        Float: 0
        Texture: {fileID: 0}
        Material: {fileID: 0}
        GameObject: {fileID: 0}
        Vector2: {x: 0, y: 0}
        Vector3: {x: 0, y: 0, z: 0}
        Vector4: {x: 0, y: 0, z: 0, w: 0}
        Color: {r: 1, g: 1, b: 1, a: 1}
        Quaternion: {x: 0, y: 0, z: 0, w: 0}
        AudioClip: {fileID: 0}
        Animation: {fileID: 0}
      StartValue:
        Name: 
        String: 
        Bool: 0
        Int: 0
        Float: 0
        Texture: {fileID: 0}
        Material: {fileID: 0}
        GameObject: {fileID: 0}
        Vector2: {x: 0, y: 0}
        Vector3: {x: 0, y: 0, z: 0}
        Vector4: {x: 0, y: 0, z: 0, w: 0}
        Color: {r: 0, g: 0, b: 0, a: 0}
        Quaternion: {x: 0, y: 0, z: 0, w: 0}
        AudioClip: {fileID: 0}
        Animation: {fileID: 0}
      PropId: 0
      ShaderOptions:
      - Name: _Color
        Type: 0
        Range: {x: 1, y: 1}
      - Name: _EmissiveColor
        Type: 0
        Range: {x: 0, y: 0}
      - Name: _RimColor
        Type: 0
        Range: {x: 0.5, y: 0.5}
      - Name: _ClippingBorderColor
        Type: 0
        Range: {x: 0.2, y: 0}
      - Name: _HoverColorOverride
        Type: 0
        Range: {x: 1, y: 1}
      - Name: _ProximityLightCenterColorOverride
        Type: 0
        Range: {x: 0, y: 0}
      - Name: _ProximityLightMiddleColorOverride
        Type: 0
        Range: {x: 1, y: 0}
      - Name: _ProximityLightOuterColorOverride
        Type: 0
        Range: {x: 0, y: 1}
      - Name: _InnerGlowColor
        Type: 0
        Range: {x: 1, y: 1}
      - Name: _EnvironmentColorX
        Type: 0
        Range: {x: 0, y: 0}
      - Name: _EnvironmentColorY
        Type: 0
        Range: {x: 1, y: 0}
      - Name: _EnvironmentColorZ
        Type: 0
        Range: {x: 0, y: 1}
      ShaderOptionNames:
      - _Color
      - _EmissiveColor
      - _RimColor
      - _ClippingBorderColor
      - _HoverColorOverride
      - _ProximityLightCenterColorOverride
      - _ProximityLightMiddleColorOverride
      - _ProximityLightOuterColorOverride
      - _InnerGlowColor
      - _EnvironmentColorX
      - _EnvironmentColorY
      - _EnvironmentColorZ
      Default:
        Name: 
        String: 
        Bool: 0
        Int: 0
        Float: 0
        Texture: {fileID: 0}
        Material: {fileID: 0}
        GameObject: {fileID: 0}
        Vector2: {x: 0, y: 0}
        Vector3: {x: 0, y: 0, z: 0}
        Vector4: {x: 0, y: 0, z: 0, w: 0}
        Color: {r: 0, g: 0, b: 0, a: 0}
        Quaternion: {x: 0, y: 0, z: 0, w: 0}
        AudioClip: {fileID: 0}
        Animation: {fileID: 0}
      ShaderName: Mixed Reality Toolkit/Standard
    History: []
    CustomSettings: []
    CustomHistory: []
    Easing:
      Enabled: 0
      Curve:
        serializedVersion: 2
        m_Curve:
        - serializedVersion: 3
          time: 0
          value: 1
          inSlope: 0
          outSlope: 0
          tangentMode: 0
          weightedMode: 0
          inWeight: 0
          outWeight: 0
        - serializedVersion: 3
          time: 1
          value: 1
          inSlope: 0
          outSlope: 0
          tangentMode: 0
          weightedMode: 0
          inWeight: 0
          outWeight: 0
        m_PreInfinity: 2
        m_PostInfinity: 2
        m_RotationOrder: 4
      LerpTime: 0.5
    NoEasing: 0
    IsValid: 0
    ThemeTarget:
      Properties: []
      Target: {fileID: 0}
      States: []
  CustomSettings: []
  States: {fileID: 11400000, guid: 5eac1712038236e4b8ffdb3893804fe1, type: 2}
